{
  "code": 0,
  "message": "ok",
  "data": {
    "pager": {
      "hasMore": true,
      "nextPage": "2",
      "page": "1",
      "perPage": 5,
      "totalCount": 146
    },
    "items": [
      {
        "subjectId": "5390197429792821032",
        "subjectType": 1,
        "title": "Titanic",
        "description": "",
        "releaseDate": "1997-12-19",
        "duration": 11640,
        "genre": "Drama,Romance",
        "cover": {
          "url": "https://pbcdnw.aoneroom.com/image/2025/11/01/0e68a08216fe532db1eef333150967fc.jpg",
          "width": 2015,
          "height": 3000,
          "size": 658291,
          "format": "jpg",
          "thumbnail": "",
          "blurHash": "eWGbP8WA%g%Mbc^jt7oet7Rk4mt7IURjWVIVWBoga|t7kXWVt7t7ae",
          "gif": null,
          "avgHueLight": "#7b6d66",
          "avgHueDark": "#665d58",
          "id": "0"
        },
        "countryName": "United States",
        "imdbRatingValue": "7.9",
        "subtitles": "English,Español,Filipino,Français,Indonesian,Kiswahili,Malay,Português,Türkçe,tiếng Việt,Русский,اَلْعَرَبِيَّةُ,اُردُو,فارسی,هَرْشٜن هَوْس,বাংলা,ਪੰਜਾਬੀ,ภาษาไทย,中文",
        "ops": "{\"rid\":\"78da1270-16a0-4bff-9919-716405fd6237\",\"trace_id\":\"0a21c8a117630285974220a9cf22ce59\",\"search_abt\":\"668,681,708\"}",
        "hasResource": true,
        "trailer": null,
        "detailPath": "titanic-m7a9yt0abq6",
        "staffList": [],
        "appointmentCnt": 0,
        "appointmentDate": "",
        "corner": "",
        "imdbRatingCount": 1361765,
        "stills": {
          "url": "https://pbcdnw.aoneroom.com/image/2023/03/22/d8085f7ab010fcb349cdb44bfbab0ee6.jpg",
          "width": 1920,
          "height": 1080,
          "size": 101214,
          "format": "jpg",
          "thumbnail": "",
          "blurHash": "e88;0#$MNGn~ob%1RkofofR*0MNbxakCR-bcofRjRjxZIpW.R*aeof",
          "gif": null,
          "avgHueLight": "#43382b",
          "avgHueDark": "#43382b",
          "id": "0"
        },
        "postTitle": "Great"
      },
      {
        "subjectId": "206379412718240440",
        "subjectType": 1,
        "title": "Titanic",
        "description": "",
        "releaseDate": "1950-02-07",
        "duration": 5100,
        "genre": "Action,Drama,History",
        "cover": {
          "url": "https://pbcdnw.aoneroom.com/image/2025/10/31/cf578939e4f6a057826ab6742d6d4df5.jpg",
          "width": 434,
          "height": 551,
          "size": 51008,
          "format": "jpg",
          "thumbnail": "",
          "blurHash": "eQK,a0xuPoxutm}=$jwJX7XSK$WY#8rqR%%39aTKwInObbj=S2NGeT",
          "gif": null,
          "avgHueLight": "#997861",
          "avgHueDark": "#665245",
          "id": "0"
        },
        "countryName": "Germany",
        "imdbRatingValue": "6.1",
        "subtitles": "English,Filipino,Français,Indonesian,Português,Русский,اَلْعَرَبِيَّةُ,اُردُو,বাংলা,ਪੰਜਾਬੀ",
        "ops": "{\"rid\":\"78da1270-16a0-4bff-9919-716405fd6237\",\"trace_id\":\"0a21c8a117630285974220a9cf22ce59\",\"search_abt\":\"668,681,708\"}",
        "hasResource": true,
        "trailer": null,
        "detailPath": "titanic-kGoZgiDdff",
        "staffList": [],
        "appointmentCnt": 0,
        "appointmentDate": "",
        "corner": "",
        "imdbRatingCount": 1996,
        "stills": null,
        "postTitle": "Trailer-Titanic"
      },
      {
        "subjectId": "7070560136179630776",
        "subjectType": 1,
        "title": "Titanic",
        "description": "",
        "releaseDate": "1953-07-13",
        "duration": 5880,
        "genre": "Drama,History,Romance",
        "cover": {
          "url": "https://pbcdnw.aoneroom.com/image/2025/10/31/f7490f93da896cf3c1548f25d401d518.jpg",
          "width": 335,
          "height": 500,
          "size": 54390,
          "format": "jpg",
          "thumbnail": "",
          "blurHash": "eNJQ_@$%krX9%M8ws,ShRjbITfofs-ozt6awRkxaoft6RjWXNdWAWB",
          "gif": null,
          "avgHueLight": "#998576",
          "avgHueDark": "#665b53",
          "id": "0"
        },
        "countryName": "United States",
        "imdbRatingValue": "7.0",
        "subtitles": "English,Filipino,Français,Indonesian,Português,Русский,اَلْعَرَبِيَّةُ,اُردُو,বাংলা,ਪੰਜਾਬੀ,中文",
        "ops": "{\"rid\":\"78da1270-16a0-4bff-9919-716405fd6237\",\"trace_id\":\"0a21c8a117630285974220a9cf22ce59\",\"search_abt\":\"668,681,708\"}",
        "hasResource": true,
        "trailer": null,
        "detailPath": "titanic-QOuOQeUejq8",
        "staffList": [],
        "appointmentCnt": 0,
        "appointmentDate": "",
        "corner": "",
        "imdbRatingCount": 8085,
        "stills": null,
        "postTitle": "Titanic (1953)"
      },
      {
        "subjectId": "6832221541099783208",
        "subjectType": 1,
        "title": "Titanic II",
        "description": "",
        "releaseDate": "2010-08-24",
        "duration": 5400,
        "genre": "Action,Adventure,Drama",
        "cover": {
          "url": "https://pbcdnw.aoneroom.com/image/2025/11/02/2ee5f12364ade6aefbbe2a5c653a6476.jpg",
          "width": 462,
          "height": 650,
          "size": 77675,
          "format": "jpg",
          "thumbnail": "",
          "blurHash": "eCF?Osxb00x]Di8_M_NFozjZtSWAIARiW:IAt7-;V@R*jYtRbIkCxu",
          "gif": null,
          "avgHueLight": "#748486",
          "avgHueDark": "#5c6566",
          "id": "0"
        },
        "countryName": "United States",
        "imdbRatingValue": "1.7",
        "subtitles": "English,Filipino,Français,Indonesian,Português,Русский,اَلْعَرَبِيَّةُ,اُردُو,বাংলা,ਪੰਜਾਬੀ,中文",
        "ops": "{\"rid\":\"78da1270-16a0-4bff-9919-716405fd6237\",\"trace_id\":\"0a21c8a117630285974220a9cf22ce59\",\"search_abt\":\"668,681,708\"}",
        "hasResource": true,
        "trailer": null,
        "detailPath": "titanic-ii-EscvgC7EH88",
        "staffList": [],
        "appointmentCnt": 0,
        "appointmentDate": "",
        "corner": "",
        "imdbRatingCount": 13635,
        "stills": {
          "url": "https://pbcdnw.aoneroom.com/image/2023/05/23/fb7ae2fa3ff777d33773f29c89319e3d.jpg",
          "width": 1024,
          "height": 682,
          "size": 43900,
          "format": "jpg",
          "thumbnail": "",
          "blurHash": "eA7nXb9F9w~AE5-VM{SO$%NIEMxExuIUxuIpxCxuInt7NIs.s,NHt7",
          "gif": null,
          "avgHueLight": "#29372e",
          "avgHueDark": "#2c3730",
          "id": "0"
        },
        "postTitle": "What a ridiculous excuse for a film"
      },
      {
        "subjectId": "6130486831974072568",
        "subjectType": 1,
        "title": "Titanic 666",
        "description": "",
        "releaseDate": "2022-04-15",
        "duration": 5460,
        "genre": "Horror,Thriller",
        "cover": {
          "url": "https://pbcdnw.aoneroom.com/image/2025/11/02/77cce90c859f6c4bf2855605c73fe5d5.jpg",
          "width": 1920,
          "height": 2560,
          "size": 819349,
          "format": "jpg",
          "thumbnail": "",
          "blurHash": "eCAm-ytS00jZM{~Ca}EMozM{-pV?R+ozNG%gf6eoj]RPpJfkeSayWA",
          "gif": null,
          "avgHueLight": "#455058",
          "avgHueDark": "#495258",
          "id": "0"
        },
        "countryName": "United States",
        "imdbRatingValue": "3.3",
        "subtitles": "English,Filipino,Français,Indonesian,Kiswahili,Português,Русский,اَلْعَرَبِيَّةُ,اُردُو,هَرْشٜن هَوْس,বাংলা,ਪੰਜਾਬੀ,中文",
        "ops": "{\"rid\":\"78da1270-16a0-4bff-9919-716405fd6237\",\"trace_id\":\"0a21c8a117630285974220a9cf22ce59\",\"search_abt\":\"668,681,708\"}",
        "hasResource": true,
        "trailer": null,
        "detailPath": "titanic-666-ytQYEx4HRi7",
        "staffList": [],
        "appointmentCnt": 0,
        "appointmentDate": "",
        "corner": "",
        "imdbRatingCount": 4701,
        "stills": {
          "url": "https://pbcdnw.aoneroom.com/image/2022/11/22/70f7dd4de1b81e1a83d3bbba0801d5e4.jpg",
          "width": 1092,
          "height": 528,
          "size": 120354,
          "format": "jpg",
          "thumbnail": "",
          "blurHash": "eNE.@I$$afn%t6~WsTa}tQoe%Loet7RkRj?aM{t7t7WB-:V@WBt7s:",
          "gif": null,
          "avgHueLight": "#78746a",
          "avgHueDark": "#66635a",
          "id": "0"
        },
        "postTitle": "Not up to Asylum standards."
      }
    ],
    "counts": [
      {
        "subjectType": 0,
        "name": "All",
        "num": 0
      },
      {
        "subjectType": 1,
        "name": "Movies",
        "num": 0
      }
    ],
    "url": "",
    "referer": ""
  }
}