{
  "code": 0,
  "message": "ok",
  "data": {
    "pager": {
      "hasMore": true,
      "nextPage": "2",
      "page": "1",
      "perPage": 5,
      "totalCount": 69
    },
    "items": [
      {
        "subjectId": "8382755684005333552",
        "subjectType": 2,
        "title": "Merlin",
        "description": "",
        "releaseDate": "2009-06-21",
        "duration": 0,
        "genre": "Adventure,Drama,Fantasy",
        "cover": {
          "url": "https://pbcdnw.aoneroom.com/image/2025/11/01/67f519ed0fd4567eac8fcc7aba30761b.jpg",
          "width": 3472,
          "height": 5031,
          "size": 1679272,
          "format": "jpg",
          "thumbnail": "",
          "blurHash": "ekE{IUt7S5bIX9_NofkCkBof%hbIs:oes:%NofjYoLfjxuoLRjazWC",
          "gif": null,
          "avgHueLight": "#67564d",
          "avgHueDark": "#665851",
          "id": "0"
        },
        "countryName": "United Kingdom",
        "imdbRatingValue": "7.9",
        "subtitles": "English,Español,Filipino,Français,Indonesian,Português,Türkçe,tiếng Việt,Русский,اَلْعَرَبِيَّةُ,اُردُو,বাংলা,ਪੰਜਾਬੀ,ภาษาไทย,中文",
        "ops": "{\"rid\":\"09c8c289-461b-439b-9405-c3eeab9f7127\",\"trace_id\":\"0a21f97017630285991970ecec0a0b36\",\"search_abt\":\"668,681,708\"}",
        "hasResource": true,
        "trailer": null,
        "detailPath": "merlin-sMxCiIO6fZ9",
        "staffList": [],
        "appointmentCnt": 0,
        "appointmentDate": "",
        "corner": "",
        "imdbRatingCount": 91831,
        "stills": {
          "url": "https://pbcdnw.aoneroom.com/image/2023/05/16/3c798d1d23969acf5d46efc6fa09023e.webp",
          "width": 640,
          "height": 480,
          "size": 15344,
          "format": "webp",
          "thumbnail": "",
          "blurHash": "eOD+k_D+M|-:MyE2%LWXRjxt0Lxtt6M|t6-nD+oJxtM|EMoJofWBoe",
          "gif": null,
          "avgHueLight": "#5f4f3f",
          "avgHueDark": "#5f4f3f",
          "id": "0"
        },
        "postTitle": "For what it is, actually fairly good"
      },
      {
        "subjectId": "2374504353567756072",
        "subjectType": 2,
        "title": "Merlin",
        "description": "",
        "releaseDate": "1998-04-26",
        "duration": 0,
        "genre": "Action,Adventure,Drama",
        "cover": {
          "url": "https://pbcdnw.aoneroom.com/image/2025/11/01/1b2ff43d3fbe33e09baa66e6203d7502.jpg",
          "width": 780,
          "height": 1124,
          "size": 99365,
          "format": "jpg",
          "thumbnail": "",
          "blurHash": "eAAc-?D*WsxbMx?HIU%Ns:of9EoeoKR*j]4;-pRONGWA01-:s:WBof",
          "gif": null,
          "avgHueLight": "#463d46",
          "avgHueDark": "#464046",
          "id": "0"
        },
        "countryName": "United States",
        "imdbRatingValue": "7.1",
        "subtitles": "English,Español,Filipino,Français,Indonesian,Português,Türkçe,tiếng Việt,Русский,اَلْعَرَبِيَّةُ,اُردُو,বাংলা,ਪੰਜਾਬੀ,ภาษาไทย,中文",
        "ops": "{\"rid\":\"09c8c289-461b-439b-9405-c3eeab9f7127\",\"trace_id\":\"0a21f97017630285991970ecec0a0b36\",\"search_abt\":\"668,681,708\"}",
        "hasResource": true,
        "trailer": null,
        "detailPath": "merlin-U0cyRIOfpP2",
        "staffList": [],
        "appointmentCnt": 0,
        "appointmentDate": "",
        "corner": "",
        "imdbRatingCount": 23523,
        "stills": {
          "url": "https://pbcdnw.aoneroom.com/image/2022/09/12/5e297d2db990e7024776a630d3b5473c.jpg",
          "width": 720,
          "height": 528,
          "size": 205283,
          "format": "jpg",
          "thumbnail": "",
          "blurHash": "e44_*FRqN5%MV:-@M_IU%Mt7RjW9jXkEohM~j=%MM}WFN2of%2M{R*",
          "gif": null,
          "avgHueLight": "#202548",
          "avgHueDark": "#232848",
          "id": "0"
        },
        "postTitle": "It's Awful."
      },
      {
        "subjectId": "8926879911005044688",
        "subjectType": 2,
        "title": "Merlin",
        "description": "",
        "releaseDate": "1980-01-12",
        "duration": 0,
        "genre": "Adventure,Comedy,Fantasy",
        "cover": {
          "url": "https://pbcdnw.aoneroom.com/image/2025/11/03/c0a91984ae1b5ba55a2a80a4a07a3980.jpg",
          "width": 811,
          "height": 1150,
          "size": 106663,
          "format": "jpg",
          "thumbnail": "",
          "blurHash": "eTJuAaRj~q%MRjRjt7t7t7xuxuWBD%RjWB?bayayofRj%MxuM{WBj[",
          "gif": null,
          "avgHueLight": "#999292",
          "avgHueDark": "#666666",
          "id": "0"
        },
        "countryName": "",
        "imdbRatingValue": "6.6",
        "subtitles": "English,Filipino,Français,Indonesian,Português,Русский,اَلْعَرَبِيَّةُ,اُردُو,বাংলা,ਪੰਜਾਬੀ,中文",
        "ops": "{\"rid\":\"09c8c289-461b-439b-9405-c3eeab9f7127\",\"trace_id\":\"0a21f97017630285991970ecec0a0b36\",\"search_abt\":\"668,681,708\"}",
        "hasResource": true,
        "trailer": null,
        "detailPath": "merlin-Iw9oGRGcrDa",
        "staffList": [],
        "appointmentCnt": 0,
        "appointmentDate": "",
        "corner": "",
        "imdbRatingCount": 50,
        "stills": null,
        "postTitle": "Trailer-Merlin"
      },
      {
        "subjectId": "3969435470332838736",
        "subjectType": 2,
        "title": "Merlin: Secrets & Magic",
        "description": "",
        "releaseDate": "2009-09-19",
        "duration": 0,
        "genre": "Documentary",
        "cover": {
          "url": "https://pbcdnw.aoneroom.com/image/2025/11/02/0fe4885223db4bc97466e19dc5938705.jpg",
          "width": 680,
          "height": 1000,
          "size": 83252,
          "format": "jpg",
          "thumbnail": "",
          "blurHash": "eH8O0Zx]M{RPIo?^x]ayM{M{.8%LofM{Rjx^xajZNHayW=ayofkCj[",
          "gif": null,
          "avgHueLight": "#323e3e",
          "avgHueDark": "#353e3e",
          "id": "0"
        },
        "countryName": "United Kingdom",
        "imdbRatingValue": "8.3",
        "subtitles": "English,Filipino,Français,Indonesian,Português,Русский,اَلْعَرَبِيَّةُ,اُردُو,বাংলা,ਪੰਜਾਬੀ",
        "ops": "{\"rid\":\"09c8c289-461b-439b-9405-c3eeab9f7127\",\"trace_id\":\"0a21f97017630285991970ecec0a0b36\",\"search_abt\":\"668,681,708\"}",
        "hasResource": true,
        "trailer": null,
        "detailPath": "merlin-secrets-and-magic-AEJVrrv3eJ4",
        "staffList": [],
        "appointmentCnt": 0,
        "appointmentDate": "",
        "corner": "",
        "imdbRatingCount": 819,
        "stills": null,
        "postTitle": "Trailer-Merlin: Secrets & Magic"
      }
    ],
    "counts": [
      {
        "subjectType": 0,
        "name": "All",
        "num": 0
      },
      {
        "subjectType": 2,
        "name": "Series",
        "num": 0
      }
    ],
    "url": "",
    "referer": ""
  }
}